{ "homepageimageurl":[
  {
    "imageurl":"http://lptechlog.com/demos/lpwallet/images/bg2.jpg"
  }

    ],
  "fashionlist": [
    {
      "id": "1",
      "name": "Men T-Shirt",
      "noofproducts": "435",
      "imageurl": "https://images-eu.ssl-images-amazon.com/images/G/31/img18/Fashion/JupiterWave2/Day1/3Pnew/1._CB482161980_.jpg"

    },
    { "id": "2",
      "name": "Men Footwear",
      "noofproducts": "2105",
      "imageurl": "https://images-eu.ssl-images-amazon.com/images/G/31/img18/Fashion/JupiterWave2/Day1/3Pnew/2._CB482161980_.jpg"
    },{
      "id": "3",
      "name": "Women Tops",
      "noofproducts": "1054",
      "imageurl": "https://images-eu.ssl-images-amazon.com/images/G/31/img18/Fashion/JupiterWave2/Day1/3Pnew/15._CB482161976_.jpg"

    },
    { "id": "4",
      "name": "Watch Combos",
      "noofproducts": "9963",
      "imageurl": "https://images-eu.ssl-images-amazon.com/images/G/31/img18/Fashion/JupiterWave2/Day1/3Pnew/9._CB482157529_.jpg"
    },
    {
      "id": "5",
      "name": "EyeWear",
      "noofproducts": "3625",
      "imageurl": "https://images-eu.ssl-images-amazon.com/images/G/31/img18/Fashion/JupiterWave2/Day1/3Pnew/8._CB482161982_.jpg"

    },
    { "id": "6",
      "name": "Ethinic Jewelery Sets",
      "noofproducts": "8820",
      "imageurl": "https://images-eu.ssl-images-amazon.com/images/G/31/img18/Fashion/JupiterWave2/Day1/3Pnew/20._CB482157528_.jpg"
    },{
      "id": "7",
      "name": "Women Top",
      "noofproducts": "635",
      "imageurl": "https://images-eu.ssl-images-amazon.com/images/G/31/img18/Fashion/JupiterWave2/Day1/3Pnew/15._CB482161976_.jpg"

    },
    { "id": "8",
      "name": "Jeans",
      "noofproducts": "65234",
      "imageurl": "https://images-eu.ssl-images-amazon.com/images/G/31/img18/apparel/Wave2/men/jeansundee499.jpg"
    }

  ],
  "mahacashbacklist": [
    {
      "id": "1",
      "name": "APPLE IPHONE 6S",
      "noofproducts": "435",
      "imageurl": "http://assets.tatacliq.com/medias/sys_master/images/13739893915678.jpg"

    },
    { "id": "2",
      "name": "OPPO F9 PRO",
      "noofproducts": "2105",
      "imageurl": "http://assets.tatacliq.com/medias/sys_master/images/13739893424158.jpg"
    },{
      "id": "3",
      "name": "SAMSUNG GALAXY",
      "noofproducts": "1054",
      "imageurl": "http://assets.tatacliq.com/medias/sys_master/images/13739893850142.jpg"

    },
    { "id": "4",
      "name": "LENOVO K8 NOTE",
      "noofproducts": "9963",
      "imageurl": "http://assets.tatacliq.com/medias/sys_master/images/13739892080670.jpg"
    },
    {
      "id": "5",
      "name": "NOKIA 6.1 PLUS",
      "noofproducts": "3625",
      "imageurl": "http://assets.tatacliq.com/medias/sys_master/images/13739893850142.jpg"

    },
    { "id": "6",
      "name": "LG G Flex 2",
      "noofproducts": "8820",
      "imageurl": "http://assets.tatacliq.com/medias/sys_master/images/13739892375582.jpg"
    },{
      "id": "7",
      "name": "Google pixel 2",
      "noofproducts": "635",
      "imageurl": "http://assets.tatacliq.com/medias/sys_master/images/13739892375582.jpg"

    }

  ],
  "shopbycategorylist": [
    {
      "id": "1",
      "name": "Oil and Ghee",
      "noofproducts": "435",
      "imageurl": "https://assets.myntassets.com/w_245,c_limit,fl_progressive,dpr_2.0/assets/images/banners/2018/10/23/8317b984-0927-4bc3-b270-f1e4d1be02ad1540302057714-Desktop-HP-fashionotsav_21.jpg"

    },
    { "id": "2",
      "name": "Rice,Flour and Pulses",
      "noofproducts": "2105",
      "imageurl": "https://assets.myntassets.com/w_245,c_limit,fl_progressive,dpr_2.0/assets/images/banners/2018/10/23/c15f7fb5-a9c9-4df4-8940-f4dc6f3e51db1540302057698-Desktop-HP-fashionotsav_22.jpg"
    },
    {
      "id": "3",
      "name": "Dry Fruits",
      "noofproducts": "1054",
      "imageurl": "https://assets.myntassets.com/w_245,c_limit,fl_progressive,dpr_2.0/assets/images/banners/2018/10/23/9abeadba-c85c-470e-ab77-42aadf0ee2761540302057679-Desktop-HP-fashionotsav_23.jpg"

    },
    { "id": "4",
      "name": "Choclate, Toffee and Biscuit",
      "noofproducts": "9963",
      "imageurl": "https://assets.myntassets.com/w_245,c_limit,fl_progressive,dpr_2.0/assets/images/banners/2018/10/23/047edd5b-e300-400e-b5df-266905c25f651540302057663-Desktop-HP-fashionotsav_24.jpg"
    },
    {
      "id": "5",
      "name": "Jam, Sauces and Pickles",
      "noofproducts": "3625",
      "imageurl": "https://assets.myntassets.com/w_245,c_limit,fl_progressive,dpr_2.0/assets/images/banners/2018/10/23/a3538191-f3ab-43af-a5b1-406f082c94781540302036253-Desktop-HP-fashionotsav_13.jpg"

    },
    { "id": "6",
      "name": "Tea, Coffee and Juices",
      "noofproducts": "8820",
      "imageurl": "https://assets.myntassets.com/w_245,c_limit,fl_progressive,dpr_2.0/assets/images/banners/2018/10/23/d8f60ad2-2fb8-4685-92b9-2e6d027dec021540302036221-Desktop-HP-fashionotsav_14.jpg"
    },{
      "id": "7",
      "name": "Noodles,Oats and more",
      "noofproducts": "635",
      "imageurl": "https://assets.myntassets.com/w_245,c_limit,fl_progressive,dpr_2.0/assets/images/banners/2018/10/23/a29f4b35-bcb0-4c57-8094-e89ead6697ce1540302057807-Desktop-HP-fashionotsav_15.jpg"
    },
    {
      "id": "8",
      "name": "Mens Foot Wear",
      "noofproducts": "635",
      "imageurl": "https://assets.myntassets.com/w_245,c_limit,fl_progressive,dpr_2.0/assets/images/banners/2018/10/23/38ca6776-57a3-4984-ab9c-4982013c31001540302057761-Desktop-HP-fashionotsav_18.jpg"
    }

  ],
  "topfeaturedoffers": [
    {
      "id": "1",
      "name": "Men T-Shirt",
      "noofproducts": "435",
      "imageurl": "http://assets.tatacliq.com/medias/sys_master/images/13739894734878.jpg"

    },
    { "id": "2",
      "name": "Men Footwear",
      "noofproducts": "2105",
      "imageurl": "http://assets.tatacliq.com/medias/sys_master/images/13743286353950.jpg"
    },{
      "id": "3",
      "name": "Women Tops",
      "noofproducts": "1054",
      "imageurl": "http://assets.tatacliq.com/medias/sys_master/images/13739894603806.jpg"

    },
    { "id": "4",
      "name": "Watch Combos",
      "noofproducts": "9963",
      "imageurl": "http://assets.tatacliq.com/medias/sys_master/images/13739894669342.jpg"
    },
    {
      "id": "5",
      "name": "EyeWear",
      "noofproducts": "3625",
      "imageurl": "http://assets.tatacliq.com/medias/sys_master/images/13739894669342.jpg"

    },
    { "id": "6",
      "name": "Ethinic Jewelery Sets",
      "noofproducts": "8820",
      "imageurl": "http://assets.tatacliq.com/medias/sys_master/images/13739894341662.jpg"
    },{
      "id": "7",
      "name": "Women Top",
      "noofproducts": "635",
      "imageurl": "http://assets.tatacliq.com/medias/sys_master/images/13739894341662.jpg"

    }

  ],
  "grocerylist": [
    {
      "id": "1",
      "name": "Oil and Ghee",
      "noofproducts": "435",
      "imageurl": "https://assetscdn1.paytm.com/images/catalog/view_item/246879/1535627481326.jpg?imwidth=414&impolicy=hq"

    },
    { "id": "2",
      "name": "Rice,Flour and Pulses",
      "noofproducts": "2105",
      "imageurl": "https://assetscdn1.paytm.com/images/catalog/view_item/246746/1535615291471.jpg?imwidth=414&impolicy=hq"
    },{
      "id": "3",
      "name": "Dry Fruits",
      "noofproducts": "1054",
      "imageurl": "https://assetscdn1.paytm.com/images/catalog/view_item/246748/1535615365672.jpg?imwidth=414&impolicy=hq"

    },
    { "id": "4",
      "name": "Choclate, Toffee and Biscuit",
      "noofproducts": "9963",
      "imageurl": "https://assetscdn1.paytm.com/images/catalog/view_item/246751/1535615531277.jpg?imwidth=414&impolicy=hq"
    },
    {
      "id": "5",
      "name": "Jam, Sauces and Pickles",
      "noofproducts": "3625",
      "imageurl": "https://assetscdn1.paytm.com/images/catalog/view_item/246756/1535616054140.jpg?imwidth=414&impolicy=hq"

    },
    { "id": "6",
      "name": "Tea, Coffee and Juices",
      "noofproducts": "8820",
      "imageurl": "https://assetscdn1.paytm.com/images/catalog/view_item/246760/1535616395814.jpg?imwidth=414&impolicy=hq"
    },{
      "id": "7",
      "name": "Noodles,Oats and more",
      "noofproducts": "635",
      "imageurl": "https://assetscdn1.paytm.com/images/catalog/view_item/246763/1535616501596.jpg?imwidth=414&impolicy=hq"
    },
    {
      "id": "8",
      "name": "Salt,Sugar and Spicies",
      "noofproducts": "635",
      "imageurl": "https://assetscdn1.paytm.com/images/catalog/view_item/246764/1535616569067.jpg?imwidth=414&impolicy=hq"
    }

  ]



}